[
    {
        "id" : "de.grogra.imp2d",
        "name" : "IMP-2D",
        "description" : "IMP-2D provides node classes for 2D geometry. Such a 2D scene graph can be displayed in a 2D view, but there is also the option to display a 2D view on the topology of an arbitrary graph.",
        "helpUrl": "https://gitlab.com/grogra/groimp/",
        "vendor": "de.grogra",
        "mainClass": "",
        "canUninstall":"false",
        "versions" : {
            "2.1.2" : {
                "downloadUrl" : "https://gitlab.com/grogra/groimp/-/package_files/105114299/download",
                "libs" : {
                },
                "depends" : {
                    "de.grogra.imp":"2.1.2"
                }
            },
            "2.1.3" : {
                "downloadUrl" : "https://gitlab.com/grogra/groimp/-/package_files/122393004/download",
                "libs" : {
                },
                "depends" : {
                    "de.grogra.imp":"2.1.3"
                }
            },
             "2.1.4" : {
                "downloadUrl" : "https://gitlab.com/grogra/groimp/-/package_files/150233597/download",
                "libs" : {
                },
                "depends" : {
                    "de.grogra.imp":"2.1.4"
                }
            },
             "2.1.5" : {
                "downloadUrl" : "https://gitlab.com/grogra/groimp/-/package_files/162582288/download",
                "libs" : {
                },
                "depends" : {
                    "de.grogra.imp":"2.1.5"
                }
            },
             "2.1.6" : {
                "downloadUrl" : "https://gitlab.com/grogra/groimp/-/package_files/175350298/download",
                "libs" : {
                },
                "depends" : {
                    "de.grogra.imp":"2.1.6"
                }
            }
        }
    }
]

