[
    {
        "id" : "de.grogra.grammar",
        "name" : "Grammar",
        "description" : "The Grammar plugin is used by XL-Compiler, it provides a general-purpose lexical analyser.",
        "helpUrl": "https://gitlab.com/grogra/groimp/",
        "vendor": "de.grogra",
        "mainClass": "",
        "canUninstall":"false",
        "versions" : {
            "2.1.2" : {
                "downloadUrl" : "https://gitlab.com/grogra/groimp/-/package_files/105114044/download",
                "libs" : {
                "antlr.jar" :"https://repo1.maven.org/maven2/antlr/antlr/2.7.7/antlr-2.7.7.jar"
                },
                "depends" : {}
            },
            "2.1.3" : {
                "downloadUrl" : "https://gitlab.com/grogra/groimp/-/package_files/122392830/download",
                "libs" : {
                "antlr.jar" :"https://repo1.maven.org/maven2/antlr/antlr/2.7.7/antlr-2.7.7.jar"
                },
                "depends" : {}
            },
            "2.1.4" : {
                "downloadUrl" : "https://gitlab.com/grogra/groimp/-/package_files/122392830/download",
                "libs" : {
                "antlr.jar" :"https://repo1.maven.org/maven2/antlr/antlr/2.7.7/antlr-2.7.7.jar"
                },
                "depends" : {}
            },
            "2.1.5" : {
                "downloadUrl" : "https://gitlab.com/grogra/groimp/-/package_files/162580922/download",
                "libs" : {
                "antlr.jar" :"https://repo1.maven.org/maven2/antlr/antlr/2.7.7/antlr-2.7.7.jar"
                },
                "depends" : {}
            },
            "2.1.6" : {
                "downloadUrl" : "https://gitlab.com/grogra/groimp/-/package_files/175349957/download",
                "libs" : {
                "antlr.jar" :"https://repo1.maven.org/maven2/antlr/antlr/2.7.7/antlr-2.7.7.jar"
                },
                "depends" : {}
            }
        }
    }
]

