// $ANTLR 2.7.7 (2006-11-01): XL.g -> XLTokenTypes.txt$
XL    // output token vocab name
BOOLEAN_LITERAL=4
INT_LITERAL=5
LONG_LITERAL=6
FLOAT_LITERAL=7
DOUBLE_LITERAL=8
CHAR_LITERAL=9
STRING_LITERAL=10
IDENT("<identifier>")=11
COMPILATION_UNIT=12
PACKAGE="package"=13
MODULE="module"=14
SCALE="scaleclass"=15
CLASS="class"=16
INTERFACE="interface"=17
IMPORT_ON_DEMAND=18
STATIC_IMPORT_ON_DEMAND=19
SINGLE_TYPE_IMPORT="import"=20
SINGLE_STATIC_IMPORT=21
EXTENDS="extends"=22
IMPLEMENTS="implements"=23
PARAMETERS=24
PARAMETER_DEF=25
SUPER="super"=26
ARGLIST=27
SLIST=28
INSTANTIATOR=29
METHOD=30
THROWS="throws"=31
SEMI=";"=32
CONSTRUCTOR=33
VARIABLE_DEF=34
ASSIGN="="=35
ARRAY_DECLARATOR=36
DECLARING_TYPE=37
VOID_="void"=38
BOOLEAN_="boolean"=39
BYTE_="byte"=40
SHORT_="short"=41
CHAR_="char"=42
INT_="int"=43
LONG_="long"=44
FLOAT_="float"=45
DOUBLE_="double"=46
INSTANCE_INIT=47
STATIC_INIT=48
EMPTY=49
QUERY=50
EXTENT_VISIBILITY=51
COMPOUND_PATTERN=52
LABEL=53
PATTERN_WITH_BLOCK=54
MINIMAL=55
LATE_MATCH=56
SINGLE_MATCH=57
OPTIONAL_MATCH=58
SINGLE_OPTIONAL_MATCH=59
ANY=60
FOLDING=61
SEPARATE=62
LT="<"=63
GT=">"=64
LINE="---"=65
LEFT_RIGHT_ARROW="<->"=66
PLUS_LEFT_ARROW="<+"=67
PLUS_ARROW="+>"=68
PLUS_LINE="-+-"=69
PLUS_LEFT_RIGHT_ARROW="<+>"=70
SLASH_LEFT_ARROW="</"=71
SLASH_ARROW="/>"=72
SLASH_LINE="-/-"=73
SLASH_LEFT_RIGHT_ARROW="</>"=74
TYPE_PATTERN=75
WRAPPED_TYPE_PATTERN=76
NAME_PATTERN=77
TREE=78
CONTEXT="(*"=79
EXPR=80
ROOT=81
METHOD_PATTERN=82
METHOD_CALL=83
DOT="."=84
APPLICATION_CONDITION=85
PARAMETERIZED_PATTERN=86
SUB="-"=87
LEFT_ARROW="<-"=88
ARROW="->"=89
X_LEFT_RIGHT_ARROW=90
TRAVERSAL=91
QUESTION="?"=92
MUL="*"=93
ADD="+"=94
RANGE_EXACTLY=95
RANGE_MIN=96
RANGE=97
RULE="==>"=98
DOUBLE_ARROW_RULE="==>>"=99
EXEC_RULE="::>"=100
PRODUCE=101
WITH=102
UNARY_PREFIX=103
TYPECAST=104
TYPECHECK=105
COM="~"=106
NOT="!"=107
NEG=108
POS=109
DIV="/"=110
REM="%"=111
POW="**"=112
SHL="<<"=113
SHR=">>"=114
USHR=">>>"=115
LE="<="=116
GE=">="=117
CMP="<=>"=118
NOT_EQUALS="!="=119
EQUALS="=="=120
OR="|"=121
XOR="^"=122
AND="&"=123
COR="||"=124
CAND="&&"=125
ARRAY_INIT=126
RULE_BLOCK=127
ELIST=128
SHELL_BLOCK=129
THIS="this"=130
QUALIFIED_SUPER=131
IF="if"=132
RETURN="return"=133
YIELD="yield"=134
THROW="throw"=135
SYNCHRONIZED_="synchronized"=136
ASSERT="assert"=137
LABELED_STATEMENT=138
BREAK="break"=139
CONTINUE="continue"=140
TRY="try"=141
CATCH="catch"=142
FINALLY="finally"=143
NODES=144
NODE=145
LCLIQUE="{#"=146
RCLIQUE="#}"=147
FOR="for"=148
ENHANCED_FOR=149
WHILE="while"=150
DO="do"=151
SWITCH="switch"=152
SWITCH_GROUP=153
CASE="case"=154
DEFAULT="default"=155
NULL_LITERAL="null"=156
INVALID_EXPR=157
LONG_LEFT_ARROW="<--"=158
LONG_ARROW="-->"=159
LONG_LEFT_RIGHT_ARROW="<-->"=160
INSTANCEOF="instanceof"=161
CLASS_LITERAL=162
QUOTE="`"=163
ADD_ASSIGN="+="=164
SUB_ASSIGN="-="=165
MUL_ASSIGN="*="=166
DIV_ASSIGN="/="=167
REM_ASSIGN="%="=168
POW_ASSIGN="**="=169
SHR_ASSIGN=">>="=170
USHR_ASSIGN=">>>="=171
SHL_ASSIGN="<<="=172
AND_ASSIGN="&="=173
XOR_ASSIGN="^="=174
OR_ASSIGN="|="=175
DEFERRED_ASSIGN=":="=176
DEFERRED_RATE_ASSIGN=":'="=177
DEFERRED_ADD=":+="=178
DEFERRED_SUB=":-="=179
DEFERRED_MUL=":*="=180
DEFERRED_DIV=":/="=181
DEFERRED_REM=":%="=182
DEFERRED_POW=":**="=183
DEFERRED_OR=":|="=184
DEFERRED_AND=":&="=185
DEFERRED_XOR=":^="=186
DEFERRED_SHL=":<<="=187
DEFERRED_SHR=":>>="=188
DEFERRED_USHR=":>>>="=189
INC="++"=190
DEC="--"=191
POST_INC=192
POST_DEC=193
IN="in"=194
GUARD="::"=195
ARRAY_ITERATOR=196
QUERY_EXPR=197
INVOKE_OP=198
QUALIFIED_NEW=199
INDEX_OP=200
NEW="new"=201
DIMLIST=202
MODIFIERS=203
ANNOTATION="@"=204
PRIVATE_="private"=205
PUBLIC_="public"=206
PROTECTED_="protected"=207
STATIC_="static"=208
TRANSIENT_="transient"=209
FINAL_="final"=210
ABSTRACT_="abstract"=211
NATIVE_="native"=212
VOLATILE_="volatile"=213
STRICT_="strictfp"=214
ITERATING_=215
CONST_="const"=216
GLOBAL_="global"=217
VARARGS_="..."=218
STATIC_MEMBER_CLASSES=219
MARKER=220
SINGLE_ELEMENT=221
NORMAL=222
ELSE="else"=223
LPAREN="("=224
RPAREN=")"=225
LBRACK="["=226
RBRACK="]"=227
LCURLY="{"=228
RCURLY="}"=229
COLON=":"=230
COMMA=","=231
LAMBDA="=>"=232
RCONTEXT="*)"=233
